in the export from aqt to excel, specify show null as NULL


formula to generate insert statements:
=CONCATENATE("insert into zJonLifoArkona2014 values('",A2,"','",B2,"','",C2,"','",D2,"','",E2,"','",F2,"','",G2,"','",H2,"',",I2,",'",J2,"',",K2,",",L2,",",M2,");")